{
  "$schema": "http://json-schema.org/draft-07/schema#",
  "$id": "https://aliceplex-schema.joshuaavalon.app/v1/show.schema.json",
  "title": "Show",
  "description": "A TV show in Plex.",
  "type": "object",
  "properties": {
    "title": {
      "type": "string"
    },
    "sort_title": {
      "type": "string"
    },
    "original_title": {
      "$ref": "./defs.schema.json#/definitions/uniqueStringArray"
    },
    "content_rating": {
      "type": "string"
    },
    "tagline": {
      "$ref": "./defs.schema.json#/definitions/uniqueStringArray"
    },
    "studio": {
      "$ref": "./defs.schema.json#/definitions/uniqueStringArray"
    },
    "aired": {
      "type": "string",
      "format": "date"
    },
    "summary": {
      "type": "string"
    },
    "rating": {
      "type": ["number", "null"]
    },
    "genres": {
      "$ref": "./defs.schema.json#/definitions/uniqueStringArray"
    },
    "collections": {
      "$ref": "./defs.schema.json#/definitions/uniqueStringArray"
    },
    "actors": {
      "$ref": "./defs.schema.json#/definitions/actors"
    },
    "season_summary": {
      "type": "object",
      "patternProperties": {
        "\\d+": {
          "type": "string"
        }
      },
      "additionalProperties": false
    }
  },
  "additionalProperties": false,
  "required": [
    "title",
    "sort_title",
    "original_title",
    "content_rating",
    "tagline",
    "studio",
    "aired",
    "summary",
    "rating",
    "genres",
    "collections",
    "actors",
    "season_summary"
  ]
}
